-------------------------------------------------------------------------------
Test set: se.nackademin.librarytest.UserNotLoggedInTest
-------------------------------------------------------------------------------
Tests run: 2, Failures: 0, Errors: 0, Skipped: 0, Time elapsed: 9.426 sec
