-------------------------------------------------------------------------------
Test set: se.nackademin.librarytest.NavigationTests
-------------------------------------------------------------------------------
Tests run: 3, Failures: 0, Errors: 0, Skipped: 0, Time elapsed: 28.085 sec
